<svg width="268" height="149" viewBox="0 0 268 149" fill="none" xmlns="http://www.w3.org/2000/svg">
<path d="M69.9103 0.360016C70.1569 -0.120006 70.8431 -0.120005 71.0897 0.360016L73.2156 4.49763C73.2789 4.6208 73.3792 4.72107 73.5024 4.78436L77.64 6.91027C78.12 7.1569 78.12 7.8431 77.64 8.08973L73.5024 10.2156C73.3792 10.2789 73.2789 10.3792 73.2156 10.5024L71.0897 14.64C70.8431 15.12 70.1569 15.12 69.9103 14.64L67.7844 10.5024C67.7211 10.3792 67.6208 10.2789 67.4976 10.2156L63.36 8.08973C62.88 7.8431 62.88 7.1569 63.36 6.91027L67.4976 4.78436C67.6208 4.72107 67.7211 4.6208 67.7844 4.49763L69.9103 0.360016Z" fill="#E377DC" fill-opacity="0.3"/>
<path d="M40.4224 117.543C40.7944 116.819 41.8293 116.819 42.2013 117.543L45.4077 123.784C45.5032 123.969 45.6544 124.121 45.8402 124.216L52.0807 127.422C52.8047 127.794 52.8047 128.829 52.0807 129.201L45.8402 132.408C45.6544 132.503 45.5032 132.654 45.4077 132.84L42.2013 139.081C41.8293 139.805 40.7944 139.805 40.4224 139.081L37.216 132.84C37.1205 132.654 36.9693 132.503 36.7835 132.408L30.543 129.201C29.819 128.829 29.819 127.794 30.543 127.422L36.7835 124.216C36.9693 124.121 37.1205 123.969 37.216 123.784L40.4224 117.543Z" fill="#E377DC" fill-opacity="0.3"/>
<path opacity="0.5" d="M247.45 54.336C247.68 53.888 248.32 53.888 248.55 54.336L250.535 58.1978C250.594 58.3128 250.687 58.4063 250.802 58.4654L254.664 60.4496C255.112 60.6798 255.112 61.3202 254.664 61.5504L250.802 63.5346C250.687 63.5937 250.594 63.6873 250.535 63.8022L248.55 67.664C248.32 68.112 247.68 68.112 247.45 67.664L245.465 63.8022C245.406 63.6873 245.313 63.5937 245.198 63.5346L241.336 61.5504C240.888 61.3202 240.888 60.6798 241.336 60.4496L245.198 58.4654C245.313 58.4063 245.406 58.3128 245.465 58.1978L247.45 54.336Z" fill="#E377DC"/>
<circle cx="207.5" cy="10.5" r="4.5" fill="#E377DC" fill-opacity="0.3"/>
<circle cx="263.5" cy="125.5" r="4.5" fill="#E377DC" fill-opacity="0.3"/>
<circle cx="138" cy="72" r="60" fill="#E377DC" fill-opacity="0.1"/>
<circle cx="138" cy="72" r="36" fill="#E377DC"/>
<circle cx="202.5" cy="144.5" r="4.5" fill="#E377DC" fill-opacity="0.3"/>
<g filter="url(#filter0_d)">
<path d="M142.304 53.3067C141.784 51.3567 140.018 50 138 50C135.982 50 134.216 51.3567 133.696 53.3067L130.667 64.6667L119.307 67.696C117.357 68.216 116 69.9819 116 72C116 74.0181 117.357 75.784 119.307 76.304L130.667 79.3333L133.696 90.6933C134.216 92.6433 135.982 94 138 94C140.018 94 141.784 92.6433 142.304 90.6933L145.333 79.3333L156.693 76.304C158.643 75.784 160 74.0181 160 72C160 69.9819 158.643 68.216 156.693 67.696L145.333 64.6667L142.304 53.3067Z" fill="white"/>
</g>
<circle cx="28.5" cy="44.5" r="3.5" fill="#E377DC" fill-opacity="0.3"/>
<circle opacity="0.5" cx="3.5" cy="79.5" r="3.5" fill="#E377DC"/>
<defs>
<filter id="filter0_d" x="106" y="44" width="64" height="64" filterUnits="userSpaceOnUse" color-interpolation-filters="sRGB">
<feFlood flood-opacity="0" result="BackgroundImageFix"/>
<feColorMatrix in="SourceAlpha" type="matrix" values="0 0 0 0 0 0 0 0 0 0 0 0 0 0 0 0 0 0 127 0" result="hardAlpha"/>
<feOffset dy="4"/>
<feGaussianBlur stdDeviation="5"/>
<feColorMatrix type="matrix" values="0 0 0 0 0 0 0 0 0 0.333333 0 0 0 0 0.173333 0 0 0 0.4 0"/>
<feBlend mode="normal" in2="BackgroundImageFix" result="effect1_dropShadow"/>
<feBlend mode="normal" in="SourceGraphic" in2="effect1_dropShadow" result="shape"/>
</filter>
</defs>
</svg>
