<svg width="21" height="129" viewBox="0 0 21 129" fill="none" xmlns="http://www.w3.org/2000/svg">
<g clip-path="url(#clip0)">
<path d="M13.5261 107.188H7.62109V128.857H13.5261V107.188Z" fill="#A7A9AC" stroke="black" stroke-width="0.402712" stroke-miterlimit="10"/>
<path d="M17.7266 126.452L18.2851 111.475H2.5769L3.13544 126.452H2.63448C2.59417 126.452 2.5625 126.484 2.5625 126.524V127.221C2.5625 127.261 2.59417 127.293 2.63448 127.293H18.2304C18.2707 127.293 18.3024 127.261 18.3024 127.221V126.524C18.3024 126.484 18.2707 126.452 18.2304 126.452H17.7266Z" fill="#EB434F" stroke="black" stroke-width="0.454785" stroke-miterlimit="10"/>
<path d="M3.1875 126.521H17.7988" stroke="black" stroke-width="0.227392" stroke-miterlimit="10"/>
<path opacity="0.35" d="M14.4788 63.8555H6.38281V101.025H14.4788V63.8555Z" fill="#DCDDDE" stroke="black" stroke-width="0.227392" stroke-miterlimit="10"/>
<path d="M18.5888 0.685547H2.30469V7.24259H18.5888V0.685547Z" fill="#D1D3D4" stroke="black" stroke-width="0.341089" stroke-miterlimit="10"/>
<path d="M10.491 1.08869H19.4305C19.4708 1.08869 19.5054 1.05725 19.5054 1.02009V0.677089C19.5054 0.617063 19.4708 0.559897 19.4161 0.525596L18.8345 0.17402C18.8029 0.154012 18.7626 0.142578 18.7222 0.142578H10.4881H2.25967C2.21936 0.142578 2.18194 0.154012 2.14739 0.17402L1.56581 0.525596C1.51111 0.559897 1.47656 0.617063 1.47656 0.677089V1.02295C1.47656 1.06011 1.51111 1.09155 1.55142 1.09155H10.491V1.08869Z" fill="white" stroke="black" stroke-width="0.454785" stroke-miterlimit="10"/>
<path d="M19.4089 1.51758H10.4895H1.57014C1.50392 1.51758 1.44922 1.56617 1.44922 1.62905V61.2999C1.44922 61.3571 1.46361 61.4085 1.4924 61.4571C1.6306 61.6886 1.77168 62.489 1.77168 63.7323C1.77168 65.2215 1.86381 111.675 1.86381 111.675C1.86381 111.85 2.01928 111.99 2.2093 111.99H10.4895H18.7698C18.9598 111.99 19.1152 111.85 19.1152 111.675C19.1152 111.675 19.2074 65.2215 19.2074 63.7323C19.2074 62.5518 19.3053 61.7687 19.4636 61.4942C19.5097 61.4171 19.5298 61.3313 19.5298 61.2427V1.6262C19.5327 1.56617 19.478 1.51758 19.4089 1.51758ZM12.787 98.7099C12.787 99.2787 12.3321 99.7418 11.7678 99.7418H9.21121C8.64979 99.7418 8.19202 99.2787 8.19202 98.7099V66.5935C8.19202 66.0247 8.64691 65.5617 9.21121 65.5617H11.7678C12.3293 65.5617 12.787 66.0247 12.787 66.5935V98.7099Z" fill="white"/>
<path d="M12.3861 64.8438H8.59431C7.87454 64.8438 7.29297 65.4497 7.29297 66.1986V98.8552C7.29297 99.6041 7.87454 100.21 8.59431 100.21H12.3832C13.103 100.21 13.6845 99.6041 13.6845 98.8552V66.1986C13.6845 65.4497 13.1029 64.8438 12.3861 64.8438ZM12.8323 98.5579C12.8323 99.1553 12.3659 99.6413 11.793 99.6413H9.18452C8.61159 99.6413 8.14518 99.1582 8.14518 98.5579V66.676C8.14518 66.0786 8.61159 65.5926 9.18452 65.5926H11.793C12.3659 65.5926 12.8323 66.0757 12.8323 66.676V98.5579Z" fill="#F1F2F2" stroke="black" stroke-width="0.227392" stroke-miterlimit="10"/>
<path d="M12.3861 100.247H8.59431C7.87454 100.247 7.29297 99.6698 7.29297 98.9553V66.1357C7.29297 65.4211 7.87454 64.8438 8.59431 64.8438H12.3832C13.103 64.8438 13.6845 65.4211 13.6845 66.1357V98.9553C13.6845 99.6698 13.1029 100.247 12.3861 100.247Z" stroke="black" stroke-width="0.341089" stroke-miterlimit="10"/>
<path d="M19.5327 61.2417V1.62515C19.5327 1.56512 19.478 1.51367 19.4118 1.51367H10.4895H1.57014C1.50392 1.51367 1.44922 1.56226 1.44922 1.62515V61.296C1.44922 61.3531 1.46361 61.4046 1.4924 61.4532C1.6306 61.6847 1.77168 62.485 1.77168 63.7284C1.77168 65.2176 1.86381 111.671 1.86381 111.671C1.86381 111.846 2.01928 111.986 2.2093 111.986H10.4895H18.7698C18.9598 111.986 19.1152 111.846 19.1152 111.671C19.1152 111.671 19.2074 65.2176 19.2074 63.7284C19.2074 62.5479 19.3053 61.7647 19.4636 61.4903C19.5097 61.416 19.5327 61.3303 19.5327 61.2417Z" stroke="black" stroke-width="0.454785" stroke-miterlimit="10"/>
<path opacity="0.6" d="M10.5013 128.857C10.5013 128.857 19.6021 128.857 20.152 128.857C20.5868 128.857 20.7336 128.642 20.7768 128.554C20.7854 128.534 20.7912 128.511 20.7912 128.488V127.859C20.7912 127.791 20.7451 127.733 20.6789 127.713C19.4265 127.302 19.5129 125.867 19.556 125.164C19.6021 124.438 20.7422 113.333 20.8344 112.198C20.9063 111.292 20.7768 110.386 20.7192 110.057C20.7077 109.983 20.6415 109.932 20.5666 109.932H10.5013H0.433211C0.358355 109.932 0.292136 109.983 0.280619 110.057C0.225917 110.383 0.0934793 111.289 0.165456 112.198C0.257587 113.33 1.3977 124.438 1.44377 125.164C1.48695 125.87 1.5762 127.302 0.320927 127.713C0.257587 127.733 0.208642 127.793 0.208642 127.859V128.488C0.208642 128.511 0.214401 128.534 0.223038 128.554C0.266224 128.642 0.413057 128.857 0.847798 128.857C1.40058 128.857 10.5013 128.857 10.5013 128.857Z" fill="#DCDDDE"/>
<path d="M10.5013 128.857C10.5013 128.857 19.6021 128.857 20.152 128.857C20.5868 128.857 20.7336 128.642 20.7768 128.554C20.7854 128.534 20.7912 128.511 20.7912 128.488V127.859C20.7912 127.791 20.7451 127.733 20.6789 127.713C19.4265 127.302 19.5129 125.867 19.5561 125.164C19.6021 124.438 20.7422 113.333 20.8344 112.198C20.9063 111.292 20.7768 110.386 20.7192 110.057C20.7077 109.983 20.6415 109.932 20.5666 109.932H10.5013H0.433211C0.358355 109.932 0.292136 109.983 0.280619 110.057C0.225917 110.383 0.0934793 111.289 0.165456 112.198C0.257587 113.33 1.3977 124.438 1.44377 125.164C1.48695 125.87 1.5762 127.302 0.320927 127.713C0.257587 127.733 0.208642 127.793 0.208642 127.859V128.488C0.208642 128.511 0.214401 128.534 0.223038 128.554C0.266224 128.642 0.413057 128.857 0.847798 128.857C1.40058 128.857 10.5013 128.857 10.5013 128.857Z" stroke="black" stroke-width="0.454785" stroke-miterlimit="10"/>
<path d="M0.210938 127.861H20.6985" stroke="black" stroke-width="0.227392" stroke-miterlimit="10"/>
</g>
<defs>
<clipPath id="clip0">
<rect width="21" height="129" fill="white"/>
</clipPath>
</defs>
</svg>
